info face="OneShinhan-Light" size=72 bold=0 italic=0 charset="" unicode=1 stretchH=100 smooth=1 aa=1 padding=1,1,1,1 spacing=1,1
common lineHeight=72 base=83 scaleW=463 scaleH=461 pages=1 packed=0
page id=0 file="OneShinhan.png"
chars count=91
char id=32 x=0 y=0 width=0 height=0 xoffset=0 yoffset=0 xadvance=21 page=0 chnl=15
char id=33 x=111 y=211 width=11 height=60 xoffset=7 yoffset=25 xadvance=25 page=0 chnl=15
char id=34 x=51 y=435 width=23 height=25 xoffset=2 yoffset=23 xadvance=28 page=0 chnl=15
char id=35 x=157 y=331 width=44 height=58 xoffset=-1 yoffset=26 xadvance=43 page=0 chnl=15
char id=36 x=281 y=0 width=38 height=74 xoffset=2 yoffset=18 xadvance=43 page=0 chnl=15
char id=37 x=57 y=148 width=62 height=62 xoffset=2 yoffset=24 xadvance=67 page=0 chnl=15
char id=38 x=120 y=148 width=53 height=62 xoffset=2 yoffset=24 xadvance=56 page=0 chnl=15
char id=39 x=75 y=435 width=9 height=25 xoffset=2 yoffset=23 xadvance=14 page=0 chnl=15
char id=40 x=24 y=0 width=20 height=80 xoffset=3 yoffset=17 xadvance=24 page=0 chnl=15
char id=41 x=45 y=0 width=20 height=80 xoffset=0 yoffset=17 xadvance=24 page=0 chnl=15
char id=42 x=357 y=388 width=39 height=37 xoffset=2 yoffset=22 xadvance=44 page=0 chnl=15
char id=43 x=94 y=390 width=44 height=44 xoffset=1 yoffset=34 xadvance=46 page=0 chnl=15
char id=44 x=37 y=435 width=13 height=25 xoffset=1 yoffset=73 xadvance=19 page=0 chnl=15
char id=45 x=427 y=59 width=31 height=7 xoffset=1 yoffset=52 xadvance=33 page=0 chnl=15
char id=46 x=246 y=377 width=11 height=10 xoffset=4 yoffset=73 xadvance=19 page=0 chnl=15
char id=47 x=320 y=0 width=27 height=71 xoffset=-1 yoffset=20 xadvance=25 page=0 chnl=15
char id=48 x=112 y=83 width=43 height=62 xoffset=1 yoffset=24 xadvance=46 page=0 chnl=15
char id=49 x=179 y=211 width=18 height=58 xoffset=9 yoffset=26 xadvance=46 page=0 chnl=15
char id=50 x=348 y=148 width=37 height=60 xoffset=3 yoffset=24 xadvance=46 page=0 chnl=15
char id=51 x=156 y=83 width=38 height=62 xoffset=2 yoffset=24 xadvance=46 page=0 chnl=15
char id=52 x=123 y=211 width=43 height=59 xoffset=1 yoffset=26 xadvance=46 page=0 chnl=15
char id=53 x=386 y=148 width=37 height=60 xoffset=3 yoffset=26 xadvance=46 page=0 chnl=15
char id=54 x=195 y=83 width=40 height=62 xoffset=3 yoffset=24 xadvance=46 page=0 chnl=15
char id=55 x=198 y=211 width=37 height=58 xoffset=3 yoffset=26 xadvance=46 page=0 chnl=15
char id=56 x=236 y=83 width=41 height=62 xoffset=2 yoffset=24 xadvance=46 page=0 chnl=15
char id=57 x=174 y=148 width=40 height=61 xoffset=2 yoffset=24 xadvance=46 page=0 chnl=15
char id=58 x=345 y=388 width=11 height=40 xoffset=4 yoffset=34 xadvance=19 page=0 chnl=15
char id=59 x=231 y=331 width=14 height=56 xoffset=1 yoffset=34 xadvance=19 page=0 chnl=15
char id=61 x=0 y=435 width=36 height=26 xoffset=2 yoffset=42 xadvance=40 page=0 chnl=15
char id=63 x=315 y=148 width=32 height=61 xoffset=3 yoffset=24 xadvance=38 page=0 chnl=15
char id=64 x=209 y=0 width=71 height=76 xoffset=2 yoffset=22 xadvance=76 page=0 chnl=15
char id=65 x=236 y=211 width=51 height=58 xoffset=0 yoffset=26 xadvance=52 page=0 chnl=15
char id=66 x=288 y=211 width=41 height=58 xoffset=4 yoffset=26 xadvance=47 page=0 chnl=15
char id=67 x=320 y=83 width=48 height=62 xoffset=2 yoffset=24 xadvance=52 page=0 chnl=15
char id=68 x=330 y=211 width=48 height=58 xoffset=4 yoffset=26 xadvance=55 page=0 chnl=15
char id=69 x=379 y=211 width=37 height=58 xoffset=3 yoffset=26 xadvance=42 page=0 chnl=15
char id=70 x=0 y=272 width=35 height=58 xoffset=3 yoffset=26 xadvance=39 page=0 chnl=15
char id=71 x=369 y=83 width=50 height=62 xoffset=2 yoffset=24 xadvance=57 page=0 chnl=15
char id=72 x=417 y=211 width=46 height=58 xoffset=3 yoffset=26 xadvance=55 page=0 chnl=15
char id=73 x=36 y=272 width=10 height=58 xoffset=5 yoffset=26 xadvance=22 page=0 chnl=15
char id=74 x=37 y=211 width=24 height=60 xoffset=1 yoffset=26 xadvance=30 page=0 chnl=15
char id=75 x=47 y=272 width=43 height=58 xoffset=3 yoffset=26 xadvance=47 page=0 chnl=15
char id=76 x=91 y=272 width=35 height=58 xoffset=3 yoffset=26 xadvance=40 page=0 chnl=15
char id=77 x=127 y=272 width=58 height=58 xoffset=3 yoffset=26 xadvance=67 page=0 chnl=15
char id=78 x=186 y=272 width=46 height=58 xoffset=3 yoffset=26 xadvance=55 page=0 chnl=15
char id=79 x=0 y=148 width=56 height=62 xoffset=2 yoffset=24 xadvance=61 page=0 chnl=15
char id=80 x=233 y=272 width=40 height=58 xoffset=4 yoffset=26 xadvance=47 page=0 chnl=15
char id=81 x=152 y=0 width=56 height=78 xoffset=2 yoffset=24 xadvance=61 page=0 chnl=15
char id=82 x=274 y=272 width=43 height=58 xoffset=4 yoffset=26 xadvance=46 page=0 chnl=15
char id=83 x=420 y=83 width=38 height=62 xoffset=2 yoffset=24 xadvance=42 page=0 chnl=15
char id=84 x=318 y=272 width=40 height=58 xoffset=1 yoffset=26 xadvance=43 page=0 chnl=15
char id=85 x=62 y=211 width=48 height=60 xoffset=3 yoffset=26 xadvance=57 page=0 chnl=15
char id=86 x=359 y=272 width=52 height=58 xoffset=0 yoffset=26 xadvance=54 page=0 chnl=15
char id=87 x=393 y=0 width=70 height=58 xoffset=0 yoffset=26 xadvance=72 page=0 chnl=15
char id=88 x=412 y=272 width=48 height=58 xoffset=0 yoffset=26 xadvance=49 page=0 chnl=15
char id=89 x=0 y=331 width=50 height=58 xoffset=0 yoffset=26 xadvance=52 page=0 chnl=15
char id=90 x=51 y=331 width=38 height=58 xoffset=2 yoffset=26 xadvance=43 page=0 chnl=15
char id=91 x=114 y=0 width=18 height=80 xoffset=6 yoffset=17 xadvance=25 page=0 chnl=15
char id=93 x=133 y=0 width=18 height=80 xoffset=1 yoffset=17 xadvance=25 page=0 chnl=15
char id=94 x=397 y=388 width=38 height=30 xoffset=4 yoffset=17 xadvance=46 page=0 chnl=15
char id=95 x=393 y=59 width=33 height=7 xoffset=-1 yoffset=97 xadvance=32 page=0 chnl=15
char id=97 x=246 y=331 width=35 height=45 xoffset=3 yoffset=40 xadvance=43 page=0 chnl=15
char id=98 x=215 y=148 width=41 height=61 xoffset=3 yoffset=24 xadvance=46 page=0 chnl=15
char id=99 x=282 y=331 width=36 height=45 xoffset=2 yoffset=40 xadvance=40 page=0 chnl=15
char id=100 x=257 y=148 width=39 height=61 xoffset=2 yoffset=24 xadvance=46 page=0 chnl=15
char id=101 x=319 y=331 width=39 height=45 xoffset=2 yoffset=40 xadvance=43 page=0 chnl=15
char id=102 x=82 y=83 width=29 height=63 xoffset=0 yoffset=21 xadvance=30 page=0 chnl=15
char id=103 x=348 y=0 width=44 height=68 xoffset=0 yoffset=40 xadvance=44 page=0 chnl=15
char id=104 x=424 y=148 width=38 height=60 xoffset=3 yoffset=24 xadvance=46 page=0 chnl=15
char id=105 x=167 y=211 width=11 height=59 xoffset=4 yoffset=25 xadvance=21 page=0 chnl=15
char id=106 x=9 y=0 width=14 height=80 xoffset=1 yoffset=25 xadvance=21 page=0 chnl=15
char id=107 x=0 y=211 width=36 height=60 xoffset=3 yoffset=24 xadvance=38 page=0 chnl=15
char id=108 x=297 y=148 width=17 height=61 xoffset=3 yoffset=24 xadvance=21 page=0 chnl=15
char id=109 x=0 y=390 width=55 height=44 xoffset=3 yoffset=40 xadvance=63 page=0 chnl=15
char id=110 x=56 y=390 width=37 height=44 xoffset=3 yoffset=40 xadvance=45 page=0 chnl=15
char id=111 x=359 y=331 width=42 height=45 xoffset=2 yoffset=40 xadvance=46 page=0 chnl=15
char id=112 x=0 y=83 width=41 height=64 xoffset=3 yoffset=40 xadvance=46 page=0 chnl=15
char id=113 x=42 y=83 width=39 height=64 xoffset=2 yoffset=40 xadvance=46 page=0 chnl=15
char id=114 x=139 y=390 width=24 height=43 xoffset=3 yoffset=41 xadvance=29 page=0 chnl=15
char id=115 x=402 y=331 width=29 height=45 xoffset=1 yoffset=40 xadvance=32 page=0 chnl=15
char id=116 x=202 y=331 width=28 height=56 xoffset=0 yoffset=29 xadvance=28 page=0 chnl=15
char id=117 x=164 y=390 width=37 height=43 xoffset=3 yoffset=42 xadvance=44 page=0 chnl=15
char id=118 x=202 y=388 width=41 height=42 xoffset=0 yoffset=42 xadvance=41 page=0 chnl=15
char id=119 x=244 y=388 width=60 height=42 xoffset=0 yoffset=42 xadvance=61 page=0 chnl=15
char id=120 x=305 y=388 width=39 height=42 xoffset=0 yoffset=42 xadvance=40 page=0 chnl=15
char id=121 x=278 y=83 width=41 height=62 xoffset=0 yoffset=42 xadvance=41 page=0 chnl=15
char id=122 x=432 y=331 width=31 height=42 xoffset=1 yoffset=42 xadvance=35 page=0 chnl=15
char id=123 x=66 y=0 width=23 height=80 xoffset=1 yoffset=17 xadvance=25 page=0 chnl=15
char id=124 x=0 y=0 width=8 height=82 xoffset=9 yoffset=16 xadvance=26 page=0 chnl=15
char id=125 x=90 y=0 width=23 height=80 xoffset=1 yoffset=17 xadvance=25 page=0 chnl=15
char id=8470 x=90 y=331 width=66 height=58 xoffset=1 yoffset=26 xadvance=69 page=0 chnl=15
kernings count=484
kerning first=32 second=84 amount=-1
kerning first=55 second=46 amount=-7
kerning first=57 second=46 amount=-3
kerning first=97 second=118 amount=-1
kerning first=97 second=119 amount=-1
kerning first=97 second=121 amount=-1
kerning first=97 second=34 amount=-2
kerning first=98 second=116 amount=-1
kerning first=98 second=118 amount=-1
kerning first=98 second=119 amount=-1
kerning first=98 second=120 amount=-1
kerning first=98 second=121 amount=-1
kerning first=98 second=122 amount=-1
kerning first=98 second=34 amount=-1
kerning first=99 second=97 amount=-1
kerning first=99 second=99 amount=-1
kerning first=99 second=100 amount=-1
kerning first=99 second=101 amount=-1
kerning first=99 second=103 amount=-1
kerning first=99 second=111 amount=-1
kerning first=99 second=113 amount=-1
kerning first=99 second=121 amount=-1
kerning first=101 second=116 amount=-1
kerning first=101 second=118 amount=-1
kerning first=101 second=119 amount=-1
kerning first=101 second=121 amount=-1
kerning first=101 second=34 amount=-1
kerning first=102 second=97 amount=-2
kerning first=102 second=99 amount=-2
kerning first=102 second=100 amount=-2
kerning first=102 second=101 amount=-2
kerning first=102 second=103 amount=-1
kerning first=102 second=111 amount=-2
kerning first=102 second=113 amount=-2
kerning first=102 second=41 amount=1
kerning first=102 second=46 amount=-5
kerning first=102 second=44 amount=-5
kerning first=102 second=34 amount=1
kerning first=102 second=39 amount=1
kerning first=102 second=125 amount=1
kerning first=102 second=93 amount=1
kerning first=103 second=97 amount=-1
kerning first=103 second=99 amount=-1
kerning first=103 second=100 amount=-1
kerning first=103 second=101 amount=-1
kerning first=103 second=111 amount=-1
kerning first=103 second=113 amount=-1
kerning first=103 second=46 amount=-3
kerning first=104 second=118 amount=-2
kerning first=104 second=121 amount=-2
kerning first=104 second=34 amount=-4
kerning first=107 second=97 amount=-1
kerning first=107 second=99 amount=-1
kerning first=107 second=100 amount=-1
kerning first=107 second=101 amount=-1
kerning first=107 second=103 amount=-1
kerning first=107 second=111 amount=-1
kerning first=107 second=113 amount=-1
kerning first=108 second=108 amount=-1
kerning first=108 second=118 amount=-1
kerning first=108 second=119 amount=-1
kerning first=108 second=121 amount=-1
kerning first=109 second=118 amount=-1
kerning first=109 second=119 amount=-1
kerning first=109 second=121 amount=-2
kerning first=110 second=118 amount=-2
kerning first=110 second=119 amount=-1
kerning first=110 second=121 amount=-2
kerning first=111 second=116 amount=-1
kerning first=111 second=118 amount=-1
kerning first=111 second=119 amount=-1
kerning first=111 second=120 amount=-2
kerning first=111 second=121 amount=-1
kerning first=111 second=122 amount=-1
kerning first=111 second=34 amount=-5
kerning first=112 second=116 amount=-1
kerning first=112 second=118 amount=-1
kerning first=112 second=119 amount=-1
kerning first=114 second=97 amount=-3
kerning first=114 second=99 amount=-1
kerning first=114 second=100 amount=-2
kerning first=114 second=101 amount=-2
kerning first=114 second=102 amount=1
kerning first=114 second=111 amount=-2
kerning first=114 second=113 amount=-2
kerning first=114 second=116 amount=2
kerning first=114 second=118 amount=1
kerning first=114 second=119 amount=1
kerning first=114 second=46 amount=-6
kerning first=114 second=44 amount=-6
kerning first=114 second=34 amount=1
kerning first=115 second=118 amount=-1
kerning first=115 second=119 amount=-1
kerning first=115 second=121 amount=-1
kerning first=116 second=111 amount=-1
kerning first=118 second=97 amount=-1
kerning first=118 second=99 amount=-1
kerning first=118 second=100 amount=-1
kerning first=118 second=101 amount=-1
kerning first=118 second=103 amount=-1
kerning first=118 second=111 amount=-1
kerning first=118 second=113 amount=-1
kerning first=118 second=46 amount=-5
kerning first=118 second=44 amount=-5
kerning first=118 second=34 amount=1
kerning first=119 second=99 amount=-1
kerning first=119 second=101 amount=-1
kerning first=119 second=111 amount=-1
kerning first=119 second=113 amount=-1
kerning first=119 second=46 amount=-4
kerning first=119 second=44 amount=-4
kerning first=120 second=99 amount=-2
kerning first=120 second=100 amount=-2
kerning first=120 second=101 amount=-2
kerning first=120 second=111 amount=-2
kerning first=120 second=113 amount=-2
kerning first=121 second=99 amount=-1
kerning first=121 second=100 amount=-1
kerning first=121 second=101 amount=-1
kerning first=121 second=111 amount=-1
kerning first=121 second=113 amount=-1
kerning first=121 second=46 amount=-5
kerning first=121 second=44 amount=-5
kerning first=122 second=99 amount=-1
kerning first=122 second=100 amount=-1
kerning first=122 second=101 amount=-1
kerning first=122 second=111 amount=-1
kerning first=122 second=113 amount=-1
kerning first=65 second=97 amount=-1
kerning first=65 second=99 amount=-1
kerning first=65 second=100 amount=-1
kerning first=65 second=101 amount=-1
kerning first=65 second=102 amount=-1
kerning first=65 second=111 amount=-1
kerning first=65 second=113 amount=-1
kerning first=65 second=116 amount=-3
kerning first=65 second=118 amount=-4
kerning first=65 second=119 amount=-2
kerning first=65 second=121 amount=-4
kerning first=65 second=67 amount=-1
kerning first=65 second=71 amount=-1
kerning first=65 second=73 amount=-2
kerning first=65 second=79 amount=-1
kerning first=65 second=81 amount=-1
kerning first=65 second=84 amount=-4
kerning first=65 second=85 amount=-2
kerning first=65 second=86 amount=-5
kerning first=65 second=87 amount=-3
kerning first=65 second=89 amount=-6
kerning first=65 second=63 amount=-2
kerning first=65 second=34 amount=-4
kerning first=66 second=65 amount=-1
kerning first=66 second=84 amount=-4
kerning first=66 second=86 amount=-2
kerning first=66 second=87 amount=-1
kerning first=66 second=89 amount=-4
kerning first=67 second=99 amount=-2
kerning first=67 second=100 amount=-2
kerning first=67 second=101 amount=-2
kerning first=67 second=103 amount=-1
kerning first=67 second=111 amount=-2
kerning first=67 second=113 amount=-2
kerning first=67 second=67 amount=-2
kerning first=67 second=71 amount=-2
kerning first=67 second=79 amount=-2
kerning first=67 second=81 amount=-2
kerning first=67 second=84 amount=-1
kerning first=67 second=86 amount=-1
kerning first=67 second=41 amount=-1
kerning first=67 second=125 amount=-1
kerning first=68 second=65 amount=-1
kerning first=68 second=74 amount=-1
kerning first=68 second=84 amount=-3
kerning first=68 second=86 amount=-2
kerning first=68 second=87 amount=-1
kerning first=68 second=88 amount=-1
kerning first=68 second=89 amount=-4
kerning first=68 second=90 amount=-1
kerning first=68 second=46 amount=-4
kerning first=68 second=44 amount=-4
kerning first=69 second=99 amount=-1
kerning first=69 second=102 amount=-1
kerning first=69 second=111 amount=-1
kerning first=69 second=117 amount=-1
kerning first=69 second=118 amount=-1
kerning first=69 second=119 amount=-1
kerning first=69 second=67 amount=-1
kerning first=69 second=71 amount=-1
kerning first=69 second=79 amount=-1
kerning first=69 second=81 amount=-1
kerning first=69 second=84 amount=1
kerning first=70 second=97 amount=-2
kerning first=70 second=99 amount=-1
kerning first=70 second=100 amount=-1
kerning first=70 second=101 amount=-1
kerning first=70 second=103 amount=-1
kerning first=70 second=111 amount=-1
kerning first=70 second=113 amount=-1
kerning first=70 second=114 amount=-1
kerning first=70 second=117 amount=-1
kerning first=70 second=118 amount=-1
kerning first=70 second=121 amount=-1
kerning first=70 second=65 amount=-3
kerning first=70 second=84 amount=1
kerning first=70 second=46 amount=-4
kerning first=70 second=44 amount=-4
kerning first=71 second=65 amount=-1
kerning first=71 second=74 amount=-1
kerning first=71 second=84 amount=-2
kerning first=71 second=87 amount=-1
kerning first=71 second=88 amount=-1
kerning first=71 second=89 amount=-4
kerning first=72 second=65 amount=1
kerning first=72 second=84 amount=-1
kerning first=72 second=88 amount=1
kerning first=72 second=89 amount=-1
kerning first=74 second=65 amount=-4
kerning first=74 second=74 amount=-2
kerning first=74 second=86 amount=-2
kerning first=74 second=87 amount=-1
kerning first=74 second=89 amount=-1
kerning first=74 second=46 amount=-3
kerning first=74 second=44 amount=-3
kerning first=75 second=97 amount=-1
kerning first=75 second=99 amount=-3
kerning first=75 second=100 amount=-3
kerning first=75 second=101 amount=-3
kerning first=75 second=109 amount=-1
kerning first=75 second=111 amount=-3
kerning first=75 second=113 amount=-3
kerning first=75 second=117 amount=-1
kerning first=75 second=118 amount=-4
kerning first=75 second=119 amount=-4
kerning first=75 second=67 amount=-5
kerning first=75 second=71 amount=-5
kerning first=75 second=79 amount=-5
kerning first=75 second=81 amount=-5
kerning first=75 second=45 amount=-2
kerning first=76 second=99 amount=-2
kerning first=76 second=100 amount=-2
kerning first=76 second=101 amount=-2
kerning first=76 second=111 amount=-2
kerning first=76 second=113 amount=-2
kerning first=76 second=116 amount=-3
kerning first=76 second=117 amount=-1
kerning first=76 second=118 amount=-4
kerning first=76 second=119 amount=-3
kerning first=76 second=121 amount=-4
kerning first=76 second=65 amount=1
kerning first=76 second=67 amount=-3
kerning first=76 second=71 amount=-3
kerning first=76 second=76 amount=-2
kerning first=76 second=79 amount=-3
kerning first=76 second=81 amount=-3
kerning first=76 second=84 amount=-6
kerning first=76 second=85 amount=-3
kerning first=76 second=86 amount=-7
kerning first=76 second=87 amount=-5
kerning first=76 second=89 amount=-7
kerning first=76 second=34 amount=-12
kerning first=79 second=65 amount=-1
kerning first=79 second=74 amount=-2
kerning first=79 second=84 amount=-3
kerning first=79 second=86 amount=-2
kerning first=79 second=87 amount=-1
kerning first=79 second=88 amount=-1
kerning first=79 second=89 amount=-4
kerning first=79 second=90 amount=-1
kerning first=79 second=46 amount=-2
kerning first=79 second=44 amount=-2
kerning first=80 second=97 amount=-1
kerning first=80 second=99 amount=-1
kerning first=80 second=100 amount=-1
kerning first=80 second=101 amount=-1
kerning first=80 second=111 amount=-1
kerning first=80 second=113 amount=-1
kerning first=80 second=116 amount=1
kerning first=80 second=118 amount=1
kerning first=80 second=65 amount=-5
kerning first=80 second=74 amount=-2
kerning first=80 second=84 amount=-1
kerning first=80 second=86 amount=-1
kerning first=80 second=88 amount=-2
kerning first=80 second=89 amount=-1
kerning first=80 second=90 amount=-2
kerning first=80 second=46 amount=-8
kerning first=80 second=44 amount=-8
kerning first=81 second=65 amount=-1
kerning first=81 second=74 amount=-1
kerning first=81 second=84 amount=-3
kerning first=81 second=86 amount=-2
kerning first=81 second=87 amount=-1
kerning first=81 second=88 amount=-1
kerning first=81 second=89 amount=-4
kerning first=81 second=90 amount=-1
kerning first=81 second=46 amount=-2
kerning first=82 second=99 amount=-1
kerning first=82 second=100 amount=-1
kerning first=82 second=101 amount=-1
kerning first=82 second=111 amount=-1
kerning first=82 second=113 amount=-1
kerning first=82 second=67 amount=-1
kerning first=82 second=71 amount=-1
kerning first=82 second=79 amount=-1
kerning first=82 second=81 amount=-1
kerning first=82 second=84 amount=-1
kerning first=82 second=86 amount=-1
kerning first=82 second=87 amount=-1
kerning first=82 second=89 amount=-3
kerning first=83 second=83 amount=-1
kerning first=83 second=86 amount=-1
kerning first=83 second=87 amount=-1
kerning first=83 second=88 amount=-1
kerning first=83 second=89 amount=-1
kerning first=84 second=32 amount=-1
kerning first=84 second=97 amount=-4
kerning first=84 second=99 amount=-4
kerning first=84 second=100 amount=-4
kerning first=84 second=101 amount=-4
kerning first=84 second=103 amount=-4
kerning first=84 second=109 amount=-3
kerning first=84 second=110 amount=-3
kerning first=84 second=111 amount=-4
kerning first=84 second=112 amount=-3
kerning first=84 second=113 amount=-4
kerning first=84 second=114 amount=-3
kerning first=84 second=115 amount=-4
kerning first=84 second=116 amount=-1
kerning first=84 second=117 amount=-3
kerning first=84 second=118 amount=-3
kerning first=84 second=119 amount=-2
kerning first=84 second=120 amount=-3
kerning first=84 second=121 amount=-3
kerning first=84 second=122 amount=-3
kerning first=84 second=65 amount=-4
kerning first=84 second=67 amount=-3
kerning first=84 second=71 amount=-3
kerning first=84 second=74 amount=-1
kerning first=84 second=79 amount=-3
kerning first=84 second=81 amount=-3
kerning first=84 second=83 amount=-1
kerning first=84 second=84 amount=1
kerning first=84 second=86 amount=1
kerning first=84 second=87 amount=1
kerning first=84 second=89 amount=1
kerning first=84 second=45 amount=-8
kerning first=84 second=46 amount=-2
kerning first=84 second=44 amount=-2
kerning first=85 second=65 amount=-1
kerning first=86 second=97 amount=-3
kerning first=86 second=99 amount=-4
kerning first=86 second=100 amount=-4
kerning first=86 second=101 amount=-4
kerning first=86 second=103 amount=-4
kerning first=86 second=109 amount=-2
kerning first=86 second=111 amount=-4
kerning first=86 second=112 amount=-2
kerning first=86 second=113 amount=-4
kerning first=86 second=114 amount=-2
kerning first=86 second=115 amount=-3
kerning first=86 second=116 amount=-1
kerning first=86 second=117 amount=-2
kerning first=86 second=118 amount=-2
kerning first=86 second=119 amount=-1
kerning first=86 second=120 amount=-1
kerning first=86 second=121 amount=-1
kerning first=86 second=65 amount=-5
kerning first=86 second=79 amount=-2
kerning first=86 second=81 amount=-2
kerning first=86 second=41 amount=1
kerning first=86 second=45 amount=-1
kerning first=86 second=46 amount=-5
kerning first=86 second=44 amount=-5
kerning first=86 second=125 amount=1
kerning first=86 second=93 amount=1
kerning first=87 second=97 amount=-2
kerning first=87 second=99 amount=-2
kerning first=87 second=100 amount=-2
kerning first=87 second=101 amount=-2
kerning first=87 second=103 amount=-2
kerning first=87 second=109 amount=-1
kerning first=87 second=110 amount=-1
kerning first=87 second=111 amount=-2
kerning first=87 second=112 amount=-1
kerning first=87 second=113 amount=-2
kerning first=87 second=114 amount=-1
kerning first=87 second=115 amount=-1
kerning first=87 second=117 amount=-1
kerning first=87 second=119 amount=-1
kerning first=87 second=120 amount=-1
kerning first=87 second=121 amount=-1
kerning first=87 second=122 amount=-1
kerning first=87 second=65 amount=-3
kerning first=87 second=67 amount=-1
kerning first=87 second=71 amount=-1
kerning first=87 second=79 amount=-1
kerning first=87 second=81 amount=-1
kerning first=87 second=84 amount=1
kerning first=87 second=41 amount=1
kerning first=87 second=45 amount=-2
kerning first=87 second=46 amount=-3
kerning first=87 second=44 amount=-3
kerning first=87 second=125 amount=1
kerning first=88 second=97 amount=-1
kerning first=88 second=99 amount=-2
kerning first=88 second=100 amount=-2
kerning first=88 second=101 amount=-2
kerning first=88 second=111 amount=-2
kerning first=88 second=113 amount=-2
kerning first=88 second=117 amount=-1
kerning first=88 second=118 amount=-1
kerning first=88 second=67 amount=-1
kerning first=88 second=71 amount=-1
kerning first=88 second=79 amount=-1
kerning first=88 second=81 amount=-4
kerning first=88 second=86 amount=1
kerning first=88 second=45 amount=-2
kerning first=89 second=97 amount=-5
kerning first=89 second=99 amount=-6
kerning first=89 second=100 amount=-6
kerning first=89 second=101 amount=-6
kerning first=89 second=102 amount=-1
kerning first=89 second=103 amount=-6
kerning first=89 second=109 amount=-2
kerning first=89 second=110 amount=-2
kerning first=89 second=111 amount=-6
kerning first=89 second=112 amount=-2
kerning first=89 second=113 amount=-6
kerning first=89 second=114 amount=-4
kerning first=89 second=115 amount=-4
kerning first=89 second=116 amount=-1
kerning first=89 second=117 amount=-3
kerning first=89 second=118 amount=-3
kerning first=89 second=119 amount=-2
kerning first=89 second=120 amount=-3
kerning first=89 second=121 amount=-3
kerning first=89 second=122 amount=-2
kerning first=89 second=65 amount=-4
kerning first=89 second=67 amount=-4
kerning first=89 second=71 amount=-4
kerning first=89 second=74 amount=-1
kerning first=89 second=79 amount=-4
kerning first=89 second=81 amount=-4
kerning first=89 second=83 amount=-1
kerning first=89 second=84 amount=1
kerning first=89 second=85 amount=-3
kerning first=89 second=86 amount=1
kerning first=89 second=87 amount=1
kerning first=89 second=89 amount=1
kerning first=89 second=42 amount=-2
kerning first=89 second=41 amount=1
kerning first=89 second=45 amount=-2
kerning first=89 second=46 amount=-7
kerning first=89 second=44 amount=-7
kerning first=89 second=38 amount=-1
kerning first=89 second=125 amount=1
kerning first=89 second=93 amount=1
kerning first=90 second=99 amount=-1
kerning first=90 second=100 amount=-1
kerning first=90 second=101 amount=-1
kerning first=90 second=103 amount=-1
kerning first=90 second=111 amount=-1
kerning first=90 second=117 amount=-1
kerning first=90 second=118 amount=-1
kerning first=90 second=119 amount=-1
kerning first=90 second=67 amount=-1
kerning first=90 second=71 amount=-1
kerning first=90 second=79 amount=-1
kerning first=90 second=81 amount=-1
kerning first=40 second=86 amount=1
kerning first=40 second=87 amount=1
kerning first=40 second=89 amount=1
kerning first=44 second=34 amount=-6
kerning first=47 second=47 amount=-8
kerning first=34 second=97 amount=-2
kerning first=34 second=99 amount=-2
kerning first=34 second=109 amount=-1
kerning first=34 second=111 amount=-2
kerning first=34 second=115 amount=-3
kerning first=34 second=65 amount=-4
kerning first=123 second=74 amount=-1
kerning first=123 second=85 amount=-1
kerning first=91 second=74 amount=-1
kerning first=91 second=85 amount=-1
